{
    "social_items": [
        {
            "name":         "Facebook",
            "fa_icon":      "fa-facebook",
            "user_name":    "#",
            "url":          "http://www.facebook.com/pages/Yoga-Now-Chicago/48845354668"
        },
        {
            "name":         "Twitter",
            "fa_icon":      "fa-twitter",
            "user_name":    "YogaNowChi",
            "url":          "https://twitter.com/YogaNowChi"
        },
        {
            "name":         "RSS",
            "fa_icon":      "fa-rss",
            "user_name":    "#",
            "url":          "http://yoganowchicago.com/feed/"
        }
    ]
}

